<?xml version="1.0" encoding="UTF-8" standalone="no"?>
<!-- Created with Inkscape (http://www.inkscape.org/) -->

<svg
   width="33.730457mm"
   height="33.730457mm"
   viewBox="0 0 33.730457 33.730457"
   version="1.1"
   id="svg1309"
   inkscape:version="1.1 (c68e22c387, 2021-05-23)"
   sodipodi:docname="client-installer.svg"
   xmlns:inkscape="http://www.inkscape.org/namespaces/inkscape"
   xmlns:sodipodi="http://sodipodi.sourceforge.net/DTD/sodipodi-0.dtd"
   xmlns="http://www.w3.org/2000/svg"
   xmlns:svg="http://www.w3.org/2000/svg">
  <sodipodi:namedview
     id="namedview1311"
     pagecolor="#505050"
     bordercolor="#eeeeee"
     borderopacity="1"
     inkscape:pageshadow="0"
     inkscape:pageopacity="0"
     inkscape:pagecheckerboard="0"
     inkscape:document-units="mm"
     showgrid="false"
     fit-margin-top="0"
     fit-margin-left="0"
     fit-margin-right="0"
     fit-margin-bottom="0"
     inkscape:zoom="0.59152637"
     inkscape:cx="-321.20292"
     inkscape:cy="155.52984"
     inkscape:window-width="1920"
     inkscape:window-height="1052"
     inkscape:window-x="2143"
     inkscape:window-y="1728"
     inkscape:window-maximized="1"
     inkscape:current-layer="layer1" />
  <defs
     id="defs1306" />
  <g
     inkscape:label="Layer 1"
     inkscape:groupmode="layer"
     id="layer1"
     transform="translate(-58.27935,-107.48116)">
    <path
       id="rect1821-3-9-7-5"
       style="vector-effect:none;fill:#85d50f;fill-opacity:1;stroke-width:0.429264;stroke-linecap:butt;stroke-linejoin:miter;stroke-miterlimit:4;stroke-dasharray:none;stroke-dashoffset:0;stroke-opacity:1"
       d="M 63.742188 0 C 28.428789 0 0 28.428789 0 63.742188 C 0 99.055586 28.428789 127.48438 63.742188 127.48438 C 99.055586 127.48438 127.48438 99.055586 127.48438 63.742188 C 127.48438 28.428789 99.055586 0 63.742188 0 z "
       transform="matrix(0.26458333,0,0,0.26458333,58.27935,107.48116)" />
    <path
       style="fill:#ffffff;fill-opacity:1;stroke-width:0.102867"
       d="m 66.321075,132.58604 c 0,-0.16003 0.09374,-0.38469 0.208304,-0.49926 l 0.208304,-0.2083 -0.635154,-0.71051 c -0.822701,-0.9203 -1.142037,-1.62722 -1.187023,-2.62774 -0.04915,-1.09321 0.272315,-1.98355 1.013407,-2.80675 0.638122,-0.70881 0.891955,-0.79434 1.261311,-0.42499 0.292071,0.29208 0.229972,0.53014 -0.309573,1.18681 -0.587049,0.71449 -0.765373,1.19412 -0.733654,1.97328 0.02925,0.71844 0.370537,1.40438 1.023771,2.05762 l 0.459598,0.45959 1.339038,-1.33903 1.339037,-1.33904 -0.722779,-0.77239 c -0.649028,-0.69358 -0.747888,-0.84629 -0.968845,-1.4966 -0.286327,-0.84271 -0.271521,-1.74131 0.04295,-2.60666 0.169949,-0.46765 0.349375,-0.73487 0.88338,-1.31559 0.638535,-0.69439 0.683715,-0.72633 0.958726,-0.67788 0.391295,0.0689 0.481069,0.18097 0.481069,0.60038 0,0.30868 -0.0669,0.42418 -0.49358,0.85208 -1.194945,1.19839 -1.15525,2.66019 0.106689,3.92887 l 0.598496,0.60168 1.300827,-1.30082 1.300831,-1.30083 -0.680273,-0.73813 c -0.578556,-0.62776 -0.717738,-0.84205 -0.930842,-1.43315 -0.302565,-0.83926 -0.314898,-1.84112 -0.03304,-2.68404 0.193086,-0.57744 0.272742,-0.68657 1.242941,-1.70286 1.331887,-1.39515 1.21942,-1.38605 2.41043,-0.19504 1.029208,1.02921 1.354008,1.55267 1.533688,2.47176 l 0.12077,0.61778 3.37741,-3.37741 c 3.28043,-3.28043 3.38577,-3.37741 3.66837,-3.37741 0.16003,0 0.35642,0.0655 0.43643,0.14547 0.08,0.08 0.14548,0.27641 0.14548,0.43643 0,0.2826 -0.097,0.38794 -3.37742,3.66837 l -3.37741,3.37741 0.61778,0.12077 c 0.9191,0.17968 1.44256,0.50448 2.47177,1.53369 1.19101,1.19101 1.20011,1.07854 -0.19505,2.41043 -1.01629,0.9702 -1.12542,1.04985 -1.70286,1.24294 -0.84292,0.28186 -1.84478,0.26953 -2.68404,-0.033 -0.591103,-0.2131 -0.805392,-0.35229 -1.433151,-0.93084 l -0.738124,-0.68028 -1.30083,1.30083 -1.30083,1.30083 0.601686,0.5985 c 0.942665,0.93766 1.820982,1.17769 2.89824,0.79202 0.365898,-0.13099 0.666885,-0.32256 0.949849,-0.60455 0.51897,-0.51721 0.85833,-0.67264 1.19421,-0.54703 0.21249,0.0795 0.27517,0.15902 0.32904,0.41763 0.0657,0.31556 0.0576,0.32768 -0.66505,0.9922 -0.58368,0.53674 -0.85022,0.71586 -1.318434,0.88601 -0.865344,0.31447 -1.763945,0.32928 -2.606654,0.043 -0.650312,-0.22095 -0.803024,-0.31981 -1.4966,-0.96884 l -0.772395,-0.72278 -1.349126,1.34913 -1.349127,1.34913 0.674117,0.60139 c 0.791254,0.70589 1.283149,0.90427 2.135044,0.86105 0.740502,-0.0376 0.986671,-0.1501 1.768794,-0.80859 0.356059,-0.29978 0.74042,-0.5537 0.854134,-0.56426 0.113714,-0.0106 0.316156,0.0902 0.449871,0.2239 0.342617,0.34262 0.240046,0.58632 -0.554263,1.31691 -0.781394,0.7187 -1.509628,1.02842 -2.514272,1.06932 -1.196731,0.0487 -2.186929,-0.37469 -3.173988,-1.35719 l -0.492111,-0.48986 -0.218215,0.21822 c -0.250171,0.25017 -0.731165,0.28717 -0.945598,0.0727 -0.08001,-0.08 -0.145477,-0.27641 -0.145477,-0.43643 z m 8.986926,-9.30677 c 0.720362,-0.79723 0.912347,-1.28982 0.854802,-2.19325 -0.04759,-0.74706 -0.276217,-1.1924 -0.966582,-1.88276 l -0.52759,-0.5276 -0.65674,0.71682 c -0.626171,0.68345 -0.662571,0.74845 -0.781994,1.39634 -0.180762,0.98067 0.09734,1.78261 0.894695,2.57997 l 0.579186,0.57918 z m 2.052928,2.88502 c 1.10809,0.36965 1.91122,0.14544 2.86816,-0.80072 l 0.56692,-0.56053 -0.51892,-0.51892 c -0.68166,-0.68166 -1.12931,-0.91046 -1.87409,-0.9579 -0.90343,-0.0575 -1.39602,0.13444 -2.193253,0.8548 l -0.668698,0.60422 0.579187,0.57919 c 0.499294,0.49929 0.670434,0.60963 1.240694,0.79986 z m 0.37784,-8.62774 c 0.0394,-0.13017 0.70314,-0.85374 1.67043,-1.82102 1.53026,-1.53026 1.61916,-1.60503 1.90858,-1.60503 0.22293,0 0.34262,0.0639 0.45063,0.24038 0.27262,0.44557 0.20769,0.54346 -1.47929,2.23044 -1.78047,1.78048 -1.92179,1.86517 -2.36785,1.41912 -0.17064,-0.17065 -0.22752,-0.31521 -0.1825,-0.46389 z m 3.55035,3.5084 c 0.0401,-0.22745 0.31006,-0.53653 1.56453,-1.79099 1.48095,-1.48095 1.77995,-1.71068 2.13459,-1.64002 0.23655,0.0471 0.39028,0.27162 0.39028,0.56991 0,0.27337 -0.097,0.38794 -1.60502,1.89598 -0.96729,0.96728 -1.69085,1.63101 -1.82102,1.67042 -0.31422,0.0951 -0.72705,-0.34379 -0.66336,-0.7053 z"
       id="path2594"
       inkscape:export-xdpi="192.77531"
       inkscape:export-ydpi="192.77531" />
  </g>
</svg>
